/* matrices.i */
 %module matrices
 %{
 /* Put header files here or function declarations like below */
 extern void Probar_Matrices(int F, int C);
 %}
 
 extern void Probar_Matrices(int F, int C);
 
